Respondent ID,Gender,What is your favorite color?,Do you have pets?,What kinds of pets do you have?,Where do you shop for pet food?,Do you visit dog parks?,Where do you shop for groceries?,How often do you buy groceries?
1,M,Red,Yes,"Dog,Cat",Petco,Yes,Jewel,Once per week
2,F,Blue,No,,,,Jewel,Once per week
3,F,Yellow,Yes,Dog,PetSmart,No,Marianos,Twice per week
4,M,Red,Yes,Fish,PetSmart,,Whole Foods,Once per week
5,F,Blue,No,,,,Jewel,Twice per week
6,F,Red,Yes,"Dog,Fish",Petco,Yes,Marianos,Once per week